<svg width="1366" height="341" viewBox="0 0 1366 341" fill="none" xmlns="http://www.w3.org/2000/svg">
<g clip-path="url(#clip0)">
<path d="M-6.10352e-05 318.788C259.923 308.535 725.5 378.387 674.5 308.623C623.5 238.86 1011.64 334.034 1366 254.568V0.000173001L-3.5621e-05 -3.05176e-05L-6.10352e-05 318.788Z" fill="#414D9B"/>
<path d="M3 127C7.41828 127 11 123.418 11 119C11 114.582 7.41828 111 3 111C-1.41828 111 -5 114.582 -5 119C-5 123.418 -1.41828 127 3 127Z" fill="#6670AF" fill-opacity="0.5"/>
<path d="M44 128C48.9706 128 53 123.971 53 119C53 114.029 48.9706 110 44 110C39.0294 110 35 114.029 35 119C35 123.971 39.0294 128 44 128Z" fill="#6670AF" fill-opacity="0.5"/>
<path d="M86 128C90.9706 128 95 123.971 95 119C95 114.029 90.9706 110 86 110C81.0294 110 77 114.029 77 119C77 123.971 81.0294 128 86 128Z" fill="#6670AF" fill-opacity="0.5"/>
<path d="M127 127C131.418 127 135 123.418 135 119C135 114.582 131.418 111 127 111C122.582 111 119 114.582 119 119C119 123.418 122.582 127 127 127Z" fill="#6670AF" fill-opacity="0.5"/>
<path d="M166 126C169.866 126 173 122.866 173 119C173 115.134 169.866 112 166 112C162.134 112 159 115.134 159 119C159 122.866 162.134 126 166 126Z" fill="#6670AF" fill-opacity="0.5"/>
<path d="M3 169C7.41828 169 11 165.418 11 161C11 156.582 7.41828 153 3 153C-1.41828 153 -5 156.582 -5 161C-5 165.418 -1.41828 169 3 169Z" fill="#6670AF" fill-opacity="0.5"/>
<path d="M44 170C48.9706 170 53 165.971 53 161C53 156.029 48.9706 152 44 152C39.0294 152 35 156.029 35 161C35 165.971 39.0294 170 44 170Z" fill="#6670AF" fill-opacity="0.5"/>
<path d="M86 170C90.9706 170 95 165.971 95 161C95 156.029 90.9706 152 86 152C81.0294 152 77 156.029 77 161C77 165.971 81.0294 170 86 170Z" fill="#6670AF" fill-opacity="0.5"/>
<path d="M127 169C131.418 169 135 165.418 135 161C135 156.582 131.418 153 127 153C122.582 153 119 156.582 119 161C119 165.418 122.582 169 127 169Z" fill="#6670AF" fill-opacity="0.5"/>
<path d="M166 168C169.866 168 173 164.866 173 161C173 157.134 169.866 154 166 154C162.134 154 159 157.134 159 161C159 164.866 162.134 168 166 168Z" fill="#6670AF" fill-opacity="0.5"/>
<path d="M3 211C7.41828 211 11 207.418 11 203C11 198.582 7.41828 195 3 195C-1.41828 195 -5 198.582 -5 203C-5 207.418 -1.41828 211 3 211Z" fill="#6670AF" fill-opacity="0.5"/>
<path d="M44 212C48.9706 212 53 207.971 53 203C53 198.029 48.9706 194 44 194C39.0294 194 35 198.029 35 203C35 207.971 39.0294 212 44 212Z" fill="#6670AF" fill-opacity="0.5"/>
<path d="M86 212C90.9706 212 95 207.971 95 203C95 198.029 90.9706 194 86 194C81.0294 194 77 198.029 77 203C77 207.971 81.0294 212 86 212Z" fill="#6670AF" fill-opacity="0.5"/>
<path d="M127 211C131.418 211 135 207.418 135 203C135 198.582 131.418 195 127 195C122.582 195 119 198.582 119 203C119 207.418 122.582 211 127 211Z" fill="#6670AF" fill-opacity="0.5"/>
<path d="M166 210C169.866 210 173 206.866 173 203C173 199.134 169.866 196 166 196C162.134 196 159 199.134 159 203C159 206.866 162.134 210 166 210Z" fill="#6670AF" fill-opacity="0.5"/>
<path d="M3 253C7.41828 253 11 249.418 11 245C11 240.582 7.41828 237 3 237C-1.41828 237 -5 240.582 -5 245C-5 249.418 -1.41828 253 3 253Z" fill="#6670AF" fill-opacity="0.5"/>
<path d="M44 254C48.9706 254 53 249.971 53 245C53 240.029 48.9706 236 44 236C39.0294 236 35 240.029 35 245C35 249.971 39.0294 254 44 254Z" fill="#6670AF" fill-opacity="0.5"/>
<path d="M86 254C90.9706 254 95 249.971 95 245C95 240.029 90.9706 236 86 236C81.0294 236 77 240.029 77 245C77 249.971 81.0294 254 86 254Z" fill="#6670AF" fill-opacity="0.5"/>
<path d="M127 253C131.418 253 135 249.418 135 245C135 240.582 131.418 237 127 237C122.582 237 119 240.582 119 245C119 249.418 122.582 253 127 253Z" fill="#6670AF" fill-opacity="0.5"/>
<path d="M166 252C169.866 252 173 248.866 173 245C173 241.134 169.866 238 166 238C162.134 238 159 241.134 159 245C159 248.866 162.134 252 166 252Z" fill="#6670AF" fill-opacity="0.5"/>
<path d="M1201 51C1204.87 51 1208 47.866 1208 44C1208 40.134 1204.87 37 1201 37C1197.13 37 1194 40.134 1194 44C1194 47.866 1197.13 51 1201 51Z" fill="#6670AF" fill-opacity="0.5"/>
<path d="M1240 52C1244.42 52 1248 48.4183 1248 44C1248 39.5817 1244.42 36 1240 36C1235.58 36 1232 39.5817 1232 44C1232 48.4183 1235.58 52 1240 52Z" fill="#6670AF" fill-opacity="0.5"/>
<path d="M1281 53C1285.97 53 1290 48.9706 1290 44C1290 39.0294 1285.97 35 1281 35C1276.03 35 1272 39.0294 1272 44C1272 48.9706 1276.03 53 1281 53Z" fill="#6670AF" fill-opacity="0.5"/>
<path d="M1323 53C1327.97 53 1332 48.9706 1332 44C1332 39.0294 1327.97 35 1323 35C1318.03 35 1314 39.0294 1314 44C1314 48.9706 1318.03 53 1323 53Z" fill="#6670AF" fill-opacity="0.5"/>
<path d="M1364 52C1368.42 52 1372 48.4183 1372 44C1372 39.5817 1368.42 36 1364 36C1359.58 36 1356 39.5817 1356 44C1356 48.4183 1359.58 52 1364 52Z" fill="#6670AF" fill-opacity="0.5"/>
<path d="M1201 93C1204.87 93 1208 89.866 1208 86C1208 82.134 1204.87 79 1201 79C1197.13 79 1194 82.134 1194 86C1194 89.866 1197.13 93 1201 93Z" fill="#6670AF" fill-opacity="0.5"/>
<path d="M1240 94C1244.42 94 1248 90.4183 1248 86C1248 81.5817 1244.42 78 1240 78C1235.58 78 1232 81.5817 1232 86C1232 90.4183 1235.58 94 1240 94Z" fill="#6670AF" fill-opacity="0.5"/>
<path d="M1281 95C1285.97 95 1290 90.9706 1290 86C1290 81.0294 1285.97 77 1281 77C1276.03 77 1272 81.0294 1272 86C1272 90.9706 1276.03 95 1281 95Z" fill="#6670AF" fill-opacity="0.5"/>
<path d="M1323 95C1327.97 95 1332 90.9706 1332 86C1332 81.0294 1327.97 77 1323 77C1318.03 77 1314 81.0294 1314 86C1314 90.9706 1318.03 95 1323 95Z" fill="#6670AF" fill-opacity="0.5"/>
<path d="M1364 94C1368.42 94 1372 90.4183 1372 86C1372 81.5817 1368.42 78 1364 78C1359.58 78 1356 81.5817 1356 86C1356 90.4183 1359.58 94 1364 94Z" fill="#6670AF" fill-opacity="0.5"/>
<path d="M1201 135C1204.87 135 1208 131.866 1208 128C1208 124.134 1204.87 121 1201 121C1197.13 121 1194 124.134 1194 128C1194 131.866 1197.13 135 1201 135Z" fill="#6670AF" fill-opacity="0.5"/>
<path d="M1240 136C1244.42 136 1248 132.418 1248 128C1248 123.582 1244.42 120 1240 120C1235.58 120 1232 123.582 1232 128C1232 132.418 1235.58 136 1240 136Z" fill="#6670AF" fill-opacity="0.5"/>
<path d="M1281 137C1285.97 137 1290 132.971 1290 128C1290 123.029 1285.97 119 1281 119C1276.03 119 1272 123.029 1272 128C1272 132.971 1276.03 137 1281 137Z" fill="#6670AF" fill-opacity="0.5"/>
<path d="M1323 137C1327.97 137 1332 132.971 1332 128C1332 123.029 1327.97 119 1323 119C1318.03 119 1314 123.029 1314 128C1314 132.971 1318.03 137 1323 137Z" fill="#6670AF" fill-opacity="0.5"/>
<path d="M1364 136C1368.42 136 1372 132.418 1372 128C1372 123.582 1368.42 120 1364 120C1359.58 120 1356 123.582 1356 128C1356 132.418 1359.58 136 1364 136Z" fill="#6670AF" fill-opacity="0.5"/>
<path d="M1201 177C1204.87 177 1208 173.866 1208 170C1208 166.134 1204.87 163 1201 163C1197.13 163 1194 166.134 1194 170C1194 173.866 1197.13 177 1201 177Z" fill="#6670AF" fill-opacity="0.5"/>
<path d="M1240 178C1244.42 178 1248 174.418 1248 170C1248 165.582 1244.42 162 1240 162C1235.58 162 1232 165.582 1232 170C1232 174.418 1235.58 178 1240 178Z" fill="#6670AF" fill-opacity="0.5"/>
<path d="M1281 179C1285.97 179 1290 174.971 1290 170C1290 165.029 1285.97 161 1281 161C1276.03 161 1272 165.029 1272 170C1272 174.971 1276.03 179 1281 179Z" fill="#6670AF" fill-opacity="0.5"/>
<path d="M1323 179C1327.97 179 1332 174.971 1332 170C1332 165.029 1327.97 161 1323 161C1318.03 161 1314 165.029 1314 170C1314 174.971 1318.03 179 1323 179Z" fill="#6670AF" fill-opacity="0.5"/>
<path d="M1364 178C1368.42 178 1372 174.418 1372 170C1372 165.582 1368.42 162 1364 162C1359.58 162 1356 165.582 1356 170C1356 174.418 1359.58 178 1364 178Z" fill="#6670AF" fill-opacity="0.5"/>
</g>
<defs>
<clipPath id="clip0">
<rect width="1366" height="341" fill="white"/>
</clipPath>
</defs>
</svg>
